<?xml version="1.0" encoding="utf-8"?>
<!-- Generator: Adobe Illustrator 16.0.4, SVG Export Plug-In . SVG Version: 6.00 Build 0)  -->
<!DOCTYPE svg PUBLIC "-//W3C//DTD SVG 1.1//EN" "http://www.w3.org/Graphics/SVG/1.1/DTD/svg11.dtd">
<svg version="1.1" id="Capa_1" xmlns="http://www.w3.org/2000/svg" xmlns:xlink="http://www.w3.org/1999/xlink" x="0px" y="0px"
	 width="200.25px" height="69.083px" viewBox="0 0 200.25 69.083" enable-background="new 0 0 200.25 69.083" xml:space="preserve">
<g>
	<g>
		
			<rect x="11.127" y="10.527" transform="matrix(0.7071 -0.7071 0.7071 0.7071 -14.1314 34.9671)" fill="#1A171B" width="48.029" height="48.027"/>
		<path fill-rule="evenodd" clip-rule="evenodd" fill="#FFFFFF" d="M41.127,27.822l-0.115-0.103L41.127,27.822z"/>
		<path fill-rule="evenodd" clip-rule="evenodd" fill="#FFFFFF" d="M51.694,38.92h0.504H51.694z"/>
		<path fill-rule="evenodd" clip-rule="evenodd" fill="#FFFFFF" d="M32.854,44.57l-0.569-0.563L32.854,44.57z"/>
		<polygon fill-rule="evenodd" clip-rule="evenodd" fill="#FFFFFF" points="35.209,54.212 35.033,54.177 35.161,54.17 		"/>
		<g>
			<path fill-rule="evenodd" clip-rule="evenodd" fill="#FFFFFF" d="M54.782,33.344c-0.2-0.876-0.841-1.658-1.641-2.259
				c-0.833-0.542-2.01-0.59-2.933-0.223c-0.744,0.325-0.902,1.158-1.377,1.724c-0.435,0.251-0.704,0.685-1.251,0.595
				c-2.716-1.486-4.57-3.854-6.876-5.86c-1.336-1.566-2.824-3.067-3.615-4.894c-0.979-2.047,2.019-2.166,1.881-3.946
				c0.271-0.415-0.056-0.903-0.08-1.36c-0.582-1.307-1.897-2.263-3.234-2.613c-0.893-0.095-1.909-0.24-2.709,0.222
				c-0.838,0.604-1.471,1.498-1.433,2.522c0.046,1.94,1.98,3.177,1.526,5.169c-0.024,0.24-0.454,0.271-0.305,0.529
				c-1.43,1.374-2.646,2.96-3.999,4.248c-0.331,0.311-0.706,0.531-1.006,0.923c-1.291,1.607-2.806,3.079-4.303,4.41
				c-0.255,0.418-0.762,0.518-1.249,0.462c-1.426-0.467-2.653-1.499-4.303-1.331c-0.256,0.014-0.398,0.27-0.674,0.228
				c-1.188,0.603-2.106,1.757-2.101,3.126l0.085,0.039c0.006,0.109,0.021,0.227,0,0.328c0.389,1.117,0.776,2.234,1.746,3.071
				c0.894,0.127,1.679,0.936,2.645,0.501c0.338-0.202,0.748-0.231,1.015-0.583c0.598-0.857,1.403-1.54,2.469-1.661
				c1.369,0.279,2.506,1.336,3.616,2.249c2.232,1.831,3.951,3.696,6.146,5.741c0.603,0.491,0.811,1.13,1.312,1.599
				c0.261,0.639,0.366,1.428-0.117,1.983c-0.42,0.199-0.707,0.671-1.137,0.857l-0.012-0.043l-0.079,0.085
				c-0.223,0.094-0.223,0.463-0.407,0.609c-0.593,1.585,0.295,3.344,1.736,4.102c1.372,0.472,3.129,1.321,4.539,0.294
				c0.938-0.498,1.617-1.486,1.866-2.499c0.465-2.001-1.805-2.811-2.371-4.361c-0.081-0.491,0.164-0.898,0.458-1.208
				c1.224-1.144,2.528-2.305,3.747-3.521c1.096-0.755,1.465-2.11,2.578-2.863c0.544-0.469,0.82-1.16,1.368-1.518
				c0.261-0.639,0.891-1.169,1.491-1.429c0.744,0.025,1.415,0.596,1.84,1.205c0.715,0.486,1.485,1.251,2.496,1.078
				c0.911-0.237,1.904-0.318,2.51-1.202C55.625,36.506,54.998,34.845,54.782,33.344z M38.773,17.172
				c-0.021-0.054-0.087-0.076-0.081-0.141L38.773,17.172z M43.837,35.486c-2.054,1.528-3.168,4.022-5.295,5.555
				c-0.655,0.472-1.295,1.011-1.969,1.45c-0.327,0.42-0.383,1.1-0.986,1.271l-0.001-0.04c-0.805,0.217-1.271-0.639-1.71-1.155
				c-0.858-1.001-1.717-1.804-2.579-2.706l-0.907-0.85c-1.181-1.394-2.692-2.979-4.386-3.672c-0.375-0.163-0.352-0.576-0.34-0.879
				c0.494-0.529,1.194-0.807,1.714-1.344c1.444-1.313,2.933-2.463,4.189-3.995c1.274-0.892,2.235-2.271,3.067-3.505
				c0.196-0.121,0.436-0.113,0.642-0.014c1.456,1.241,2.742,2.679,4.336,3.538c1.529,1.063,2.074,2.739,3.521,3.917
				c0.602,0.63,1.231,0.952,1.819,1.519C44.909,35.144,44.227,35.226,43.837,35.486z"/>
			<path fill-rule="evenodd" clip-rule="evenodd" fill="#FFFFFF" d="M40.491,33.495c-0.139,0.098-0.688-0.597-0.814-0.604
				l-0.335,0.226l0.068-0.129c-0.015,0.018-0.296,0.39-0.308,0.268c-0.514,0.116-0.779,0.542-1.058,0.981
				c0.085-0.124-0.202,1.999,0.39,3.164c0.308,0.603,0.56,0.948,1.509,0.598l0.744-0.869C40.881,36.582,40.295,34.488,40.491,33.495
				z"/>
			<path fill-rule="evenodd" clip-rule="evenodd" fill="#FFFFFF" d="M32.812,32.998c-0.035-0.27-0.595-0.285-0.8-0.338l-0.744-0.1
				l0.099-0.127l-0.939,1.037c-0.349,0.423,0.116,0.609,0.07,0.914l0.026,2.19h0.17c0.132,0.026-0.062,0.303,0.026,0.402l0.407,0.17
				l-0.029,0.059l0.269-0.029l1.108-0.267l0.378-0.405l0.196-0.942C32.684,35.577,32.833,33.157,32.812,32.998z"/>
			<path fill-rule="evenodd" clip-rule="evenodd" fill="#FFFFFF" d="M36.633,30.831c-0.223-0.379-0.489-0.41-0.844-0.699
				l-0.041-0.199c-0.261-0.199-0.627,0.029-0.844,0.029l0.07-0.139c-0.809,0.631-0.481,0.988-0.671,1.653h0.07l0.026,0.576
				l-0.056,0.673c0.17,0.262-0.542,6.509,1.444,5.289l0.935-0.334l-0.015-2.024l-0.082-0.363c0.097-0.129,0.009-0.873,0.006-1.192
				c-0.158,0.515,0.053-1.084-0.044-1.613c-0.013-0.077,0.141-0.479,0.141-0.479l-0.196-0.026c0.064-0.366,0.223-0.833,0.196-1.207
				L36.633,30.831z"/>
		</g>
	</g>
	<g>
		<path fill="#1A171B" d="M82.958,26.535h-4.161L77.7,30.017h-1.48l3.865-11.422h1.637l3.865,11.422h-1.532L82.958,26.535z
			 M82.592,25.369l-0.539-1.741c-0.4-1.271-0.767-2.524-1.132-3.848h-0.069c-0.366,1.323-0.731,2.576-1.132,3.848l-0.558,1.741
			H82.592z"/>
		<path fill="#1A171B" d="M87.135,27.667c0.522,0.905,1.167,1.288,1.985,1.288c1.219,0,1.828-0.696,1.828-2.438v-7.922h1.444v8.062
			c0,1.967-0.905,3.569-3.151,3.569c-1.444,0-2.472-0.627-3.134-1.828L87.135,27.667z"/>
		<path fill="#1A171B" d="M95.334,18.595h1.463v6.738c0,2.751,1.166,3.621,2.646,3.621c1.515,0,2.717-0.87,2.717-3.621v-6.738h1.393
			v6.703c0,3.674-1.776,4.928-4.109,4.928s-4.108-1.254-4.108-4.928V18.595z"/>
		<path fill="#1A171B" d="M106.545,18.595h1.497l4.144,7.174l1.236,2.367h0.069c-0.069-1.148-0.191-2.438-0.191-3.639v-5.902h1.375
			v11.422h-1.497l-4.126-7.19l-1.236-2.351h-0.069c0.069,1.148,0.174,2.367,0.174,3.569v5.972h-1.375V18.595z"/>
		<path fill="#1A171B" d="M120.123,19.814h-3.465v-1.219h8.374v1.219h-3.465v10.203h-1.444V19.814z"/>
		<path fill="#1A171B" d="M131.525,26.535h-4.161l-1.097,3.482h-1.48l3.865-11.422h1.637l3.865,11.422h-1.532L131.525,26.535z
			 M131.159,25.369l-0.539-1.741c-0.4-1.271-0.767-2.524-1.132-3.848h-0.069c-0.366,1.323-0.731,2.576-1.132,3.848l-0.558,1.741
			H131.159z"/>
		<path fill="#1A171B" d="M135.685,18.595h1.724l2.211,6.129l0.818,2.333h0.07l0.801-2.333l2.193-6.129h1.706v11.422h-1.375v-6.285
			c0-1.01,0.122-2.368,0.191-3.378h-0.069l-0.905,2.542l-2.194,5.972h-0.835l-2.194-5.972l-0.905-2.542h-0.069
			c0.069,1.01,0.174,2.368,0.174,3.378v6.285h-1.341V18.595z"/>
		<path fill="#1A171B" d="M148.271,18.595h6.581v1.219h-5.119v3.587h4.318v1.236h-4.318v4.144h5.293v1.236h-6.755V18.595z"/>
		<path fill="#1A171B" d="M157.374,18.595h1.498l4.144,7.174l1.235,2.367h0.07c-0.07-1.148-0.191-2.438-0.191-3.639v-5.902h1.375
			v11.422h-1.497l-4.126-7.19l-1.236-2.351h-0.07c0.07,1.148,0.175,2.367,0.175,3.569v5.972h-1.376V18.595z"/>
		<path fill="#1A171B" d="M170.952,19.814h-3.465v-1.219h8.375v1.219h-3.465v10.203h-1.445V19.814z"/>
		<path fill="#1A171B" d="M181.361,18.595h2.855c3.517,0,5.397,2.037,5.397,5.659c0,3.639-1.881,5.763-5.328,5.763h-2.925V18.595z
			 M184.112,28.833c2.682,0,4.005-1.688,4.005-4.578c0-2.873-1.323-4.475-4.005-4.475h-1.288v9.053H184.112z"/>
		<path fill="#1A171B" d="M192.032,18.595h6.581v1.219h-5.118v3.587h4.317v1.236h-4.317v4.144h5.293v1.236h-6.756V18.595z"/>
		<path fill="#1A171B" d="M78.056,45.321c1.216,0.978,2.749,1.665,4.018,1.665c1.375,0,1.957-0.449,1.957-1.216
			c0-0.819-0.873-1.084-2.327-1.665l-2.141-0.899c-1.851-0.74-3.463-2.3-3.463-4.785c0-2.934,2.644-5.34,6.397-5.34
			c1.956,0,4.124,0.74,5.71,2.3l-2.273,2.855c-1.163-0.819-2.168-1.242-3.437-1.242c-1.11,0-1.798,0.396-1.798,1.163
			c0,0.819,0.978,1.11,2.538,1.718l2.088,0.819c2.142,0.847,3.357,2.327,3.357,4.706c0,2.908-2.432,5.499-6.715,5.499
			c-2.168,0-4.652-0.794-6.503-2.459L78.056,45.321z"/>
		<path fill="#1A171B" d="M97.881,42.016c-0.105-0.952-0.688-1.375-1.851-1.375c-0.951,0-1.956,0.37-3.331,1.11l-1.586-2.961
			c1.851-1.11,3.754-1.744,5.816-1.744c3.437,0,5.498,1.851,5.498,6.186v7.35h-3.701l-0.316-1.27h-0.106
			c-1.057,0.952-2.221,1.587-3.647,1.587c-2.485,0-3.966-1.903-3.966-4.071C90.69,44.078,92.806,42.544,97.881,42.016z
			 M96.242,47.409c0.74,0,1.163-0.37,1.639-0.898v-1.798c-2.168,0.317-2.854,1.005-2.854,1.745
			C95.026,47.065,95.449,47.409,96.242,47.409z"/>
		<path fill="#1A171B" d="M105.493,37.364h3.701l0.317,1.586h0.105c1.058-1.005,2.38-1.903,4.177-1.903
			c2.908,0,4.124,2.114,4.124,5.393v8.143h-4.547v-7.561c0-1.692-0.423-2.115-1.321-2.115c-0.846,0-1.322,0.37-2.01,1.005v8.671
			h-4.547V37.364z"/>
		<path fill="#1A171B" d="M121.512,40.906h-1.744v-3.384l2.009-0.158l0.528-3.438h3.754v3.438h3.014v3.542h-3.014v4.521
			c0,1.454,0.74,1.93,1.587,1.93c0.423,0,0.846-0.105,1.163-0.211l0.688,3.277c-0.688,0.212-1.666,0.477-3.12,0.477
			c-3.437,0-4.864-2.168-4.864-5.394V40.906z"/>
		<path fill="#1A171B" d="M139.593,33.081c2.168,0,4.019,1.058,5.234,2.273l-2.484,2.803c-0.847-0.74-1.587-1.163-2.697-1.163
			c-2.062,0-3.807,1.851-3.807,4.97c0,3.225,1.48,5.022,3.701,5.022c1.322,0,2.273-0.581,3.014-1.374l2.485,2.749
			c-1.454,1.691-3.437,2.538-5.552,2.538c-4.494,0-8.301-2.908-8.301-8.777C131.187,36.359,135.151,33.081,139.593,33.081z"/>
		<path fill="#1A171B" d="M146.729,37.364h4.547v7.561c0,1.691,0.423,2.114,1.322,2.114c0.846,0,1.321-0.317,1.903-1.163v-8.512
			h4.547v13.218h-3.701l-0.317-1.745h-0.105c-1.058,1.269-2.273,2.062-4.071,2.062c-2.908,0-4.124-2.115-4.124-5.394V37.364z"/>
		<path fill="#1A171B" d="M163.277,50.211v-0.106c-0.688-0.476-1.216-1.163-1.216-2.273c0-0.898,0.581-1.85,1.479-2.484v-0.105
			c-0.951-0.635-1.797-1.851-1.797-3.384c0-3.278,2.749-4.812,5.657-4.812c0.74,0,1.48,0.105,2.114,0.317h4.917v3.277h-1.903
			c0.106,0.317,0.212,0.847,0.212,1.375c0,3.119-2.379,4.389-5.34,4.389c-0.423,0-0.899-0.054-1.48-0.186
			c-0.265,0.238-0.317,0.396-0.317,0.767c0,0.582,0.528,0.793,1.851,0.793h1.982c3.305,0,5.208,1.005,5.208,3.437
			c0,2.855-2.961,4.812-7.666,4.812c-3.014,0-5.552-0.898-5.552-3.277C161.427,51.666,162.062,50.845,163.277,50.211z
			 M167.719,53.225c1.48,0,2.59-0.476,2.59-1.216c0-0.688-0.634-0.794-1.771-0.794h-1.031c-1.058,0-1.533-0.053-1.903-0.158
			c-0.317,0.317-0.476,0.582-0.476,0.952C165.128,52.855,166.186,53.225,167.719,53.225z M168.829,41.858
			c0-1.217-0.582-1.798-1.428-1.798s-1.428,0.581-1.428,1.798c0,1.269,0.582,1.85,1.428,1.85S168.829,43.126,168.829,41.858z"/>
		<path fill="#1A171B" d="M182.892,42.016c-0.105-0.952-0.688-1.375-1.851-1.375c-0.952,0-1.956,0.37-3.331,1.11l-1.586-2.961
			c1.851-1.11,3.754-1.744,5.815-1.744c3.437,0,5.499,1.851,5.499,6.186v7.35h-3.701l-0.317-1.27h-0.105
			c-1.058,0.952-2.221,1.587-3.648,1.587c-2.484,0-3.965-1.903-3.965-4.071C175.701,44.078,177.815,42.544,182.892,42.016z
			 M181.252,47.409c0.74,0,1.164-0.37,1.64-0.898v-1.798c-2.168,0.317-2.855,1.005-2.855,1.745
			C180.036,47.065,180.459,47.409,181.252,47.409z"/>
		<path fill="#1A171B" d="M191.085,40.906h-1.744v-3.384l2.009-0.158l0.528-3.438h3.754v3.438h3.014v3.542h-3.014v4.521
			c0,1.454,0.74,1.93,1.587,1.93c0.423,0,0.846-0.105,1.163-0.211l0.688,3.277c-0.688,0.212-1.666,0.477-3.12,0.477
			c-3.437,0-4.864-2.168-4.864-5.394V40.906z"/>
	</g>
</g>
</svg>
