<?xml version="1.0" encoding="utf-8"?>
<!-- Generator: Adobe Illustrator 16.0.4, SVG Export Plug-In . SVG Version: 6.00 Build 0)  -->
<!DOCTYPE svg PUBLIC "-//W3C//DTD SVG 1.1//EN" "http://www.w3.org/Graphics/SVG/1.1/DTD/svg11.dtd">
<svg version="1.1" id="Capa_1" xmlns="http://www.w3.org/2000/svg" xmlns:xlink="http://www.w3.org/1999/xlink" x="0px" y="0px"
	 width="138.667px" height="139.668px" viewBox="0 0 138.667 139.668" enable-background="new 0 0 138.667 139.668"
	 xml:space="preserve">
<g>
	
		<rect x="21.304" y="21.806" transform="matrix(0.7071 -0.7071 0.7071 0.7071 -29.0728 69.4829)" fill="#6AB023" width="96.059" height="96.055"/>
	<path fill-rule="evenodd" clip-rule="evenodd" fill="#FFFFFF" d="M81.304,56.395l-0.23-0.204L81.304,56.395z"/>
	<path fill-rule="evenodd" clip-rule="evenodd" fill="#FFFFFF" d="M102.439,78.593h1.008H102.439z"/>
	<path fill-rule="evenodd" clip-rule="evenodd" fill="#FFFFFF" d="M64.757,89.892l-1.14-1.127L64.757,89.892z"/>
	<polygon fill-rule="evenodd" clip-rule="evenodd" fill="#FFFFFF" points="69.468,109.177 69.117,109.107 69.372,109.093 	"/>
	<g>
		<path fill-rule="evenodd" clip-rule="evenodd" fill="#FFFFFF" d="M108.615,67.441c-0.4-1.753-1.682-3.317-3.281-4.518
			c-1.666-1.084-4.02-1.18-5.865-0.446c-1.488,0.65-1.805,2.317-2.754,3.448c-0.869,0.501-1.408,1.369-2.502,1.189
			c-5.432-2.973-9.141-7.708-13.752-11.721c-2.672-3.133-5.648-6.135-7.231-9.787c-1.959-4.095,4.038-4.332,3.762-7.893
			c0.543-0.831-0.111-1.807-0.16-2.721c-1.164-2.613-3.795-4.526-6.47-5.227c-1.784-0.189-3.817-0.48-5.417,0.442
			c-1.676,1.21-2.941,2.997-2.865,5.046c0.091,3.881,3.961,6.354,3.053,10.338c-0.05,0.48-0.908,0.543-0.609,1.059
			c-2.859,2.748-5.294,5.92-7.998,8.495c-0.662,0.621-1.412,1.063-2.013,1.846c-2.581,3.216-5.61,6.159-8.604,8.821
			c-0.51,0.835-1.523,1.034-2.499,0.923c-2.851-0.933-5.306-2.997-8.604-2.661c-0.513,0.027-0.797,0.539-1.348,0.455
			c-2.376,1.205-4.213,3.513-4.201,6.252l0.17,0.078c0.012,0.218,0.041,0.453,0,0.656c0.776,2.235,1.553,4.469,3.492,6.143
			c1.787,0.254,3.357,1.871,5.288,1.002c0.677-0.404,1.497-0.463,2.03-1.166c1.195-1.715,2.807-3.08,4.937-3.322
			c2.739,0.559,5.013,2.672,7.233,4.498c4.465,3.662,7.901,7.393,12.293,11.482c1.204,0.982,1.62,2.26,2.625,3.197
			c0.521,1.277,0.732,2.855-0.234,3.967c-0.841,0.398-1.415,1.342-2.273,1.715l-0.023-0.086l-0.158,0.17
			c-0.445,0.188-0.445,0.926-0.814,1.219c-1.187,3.17,0.589,6.688,3.472,8.203c2.745,0.943,6.259,2.643,9.079,0.588
			c1.875-0.996,3.234-2.973,3.732-4.998c0.93-4.002-3.609-5.621-4.742-8.723c-0.162-0.982,0.328-1.797,0.916-2.416
			c2.447-2.287,5.057-4.609,7.494-7.043c2.191-1.51,2.93-4.221,5.156-5.727c1.088-0.938,1.641-2.32,2.736-3.035
			c0.521-1.277,1.781-2.338,2.982-2.857c1.488,0.051,2.83,1.191,3.68,2.41c1.43,0.973,2.971,2.502,4.992,2.156
			c1.822-0.475,3.809-0.637,5.02-2.404C110.3,73.765,109.046,70.443,108.615,67.441z M76.597,35.096
			c-0.041-0.106-0.174-0.151-0.162-0.281L76.597,35.096z M86.724,71.724c-4.107,3.057-6.336,8.045-10.59,11.11
			c-1.311,0.943-2.59,2.021-3.938,2.9c-0.653,0.84-0.765,2.199-1.972,2.541l-0.003-0.08c-1.608,0.434-2.54-1.277-3.419-2.311
			c-1.717-2.002-3.434-3.607-5.159-5.412l-1.813-1.699c-2.361-2.787-5.385-5.959-8.771-7.344c-0.75-0.326-0.703-1.152-0.68-1.757
			c0.987-1.06,2.388-1.613,3.428-2.688c2.889-2.627,5.865-4.926,8.379-7.99c2.549-1.783,4.471-4.541,6.135-7.01
			c0.393-0.242,0.87-0.227,1.283-0.027c2.912,2.481,5.484,5.357,8.672,7.076c3.059,2.127,4.148,5.479,7.041,7.834
			c1.203,1.259,2.463,1.904,3.639,3.037C88.869,71.041,87.503,71.204,86.724,71.724z"/>
		<path fill-rule="evenodd" clip-rule="evenodd" fill="#FFFFFF" d="M80.033,67.742c-0.277,0.195-1.377-1.193-1.629-1.21l-0.67,0.452
			l0.137-0.258c-0.029,0.034-0.592,0.778-0.615,0.535c-1.027,0.232-1.559,1.084-2.115,1.963c0.17-0.249-0.404,3.998,0.779,6.328
			c0.615,1.205,1.119,1.896,3.018,1.195l1.488-1.738C80.812,73.916,79.64,69.728,80.033,67.742z"/>
		<path fill-rule="evenodd" clip-rule="evenodd" fill="#FFFFFF" d="M64.675,66.748c-0.07-0.539-1.189-0.57-1.6-0.676l-1.488-0.199
			l0.196-0.254l-1.878,2.074c-0.697,0.846,0.231,1.219,0.141,1.827l0.053,4.382h0.34c0.264,0.053-0.123,0.605,0.053,0.805
			l0.814,0.34l-0.059,0.117l0.536-0.059l2.218-0.533l0.756-0.811l0.393-1.885C64.417,71.905,64.716,67.066,64.675,66.748z"/>
		<path fill-rule="evenodd" clip-rule="evenodd" fill="#FFFFFF" d="M72.316,62.414c-0.445-0.758-0.979-0.821-1.688-1.398
			l-0.082-0.398c-0.521-0.398-1.254,0.059-1.688,0.059L69,60.397c-1.617,1.263-0.964,1.978-1.342,3.308h0.141l0.053,1.152
			l-0.111,1.346c0.34,0.523-1.084,13.018,2.889,10.578l1.869-0.668l-0.029-4.049l-0.164-0.727c0.193-0.258,0.018-1.746,0.012-2.385
			c-0.316,1.03,0.105-2.167-0.088-3.226c-0.026-0.155,0.281-0.957,0.281-0.957l-0.393-0.054c0.129-0.732,0.445-1.665,0.393-2.414
			L72.316,62.414z"/>
	</g>
</g>
</svg>
