<?xml version="1.0" encoding="utf-8"?>
<!-- Generator: Adobe Illustrator 16.0.4, SVG Export Plug-In . SVG Version: 6.00 Build 0)  -->
<!DOCTYPE svg PUBLIC "-//W3C//DTD SVG 1.1//EN" "http://www.w3.org/Graphics/SVG/1.1/DTD/svg11.dtd">
<svg version="1.1" id="Capa_1" xmlns="http://www.w3.org/2000/svg" xmlns:xlink="http://www.w3.org/1999/xlink" x="0px" y="0px"
	 width="138.667px" height="139.668px" viewBox="0 0 138.667 139.668" enable-background="new 0 0 138.667 139.668"
	 xml:space="preserve">
<path fill-rule="evenodd" clip-rule="evenodd" fill="#FFFFFF" d="M81.304,56.395l-0.23-0.204L81.304,56.395z"/>
<path fill-rule="evenodd" clip-rule="evenodd" fill="#FFFFFF" d="M102.439,78.593h1.008H102.439z"/>
<path fill-rule="evenodd" clip-rule="evenodd" fill="#FFFFFF" d="M64.757,89.892l-1.14-1.127L64.757,89.892z"/>
<polygon fill-rule="evenodd" clip-rule="evenodd" fill="#FFFFFF" points="69.468,109.177 69.117,109.107 69.372,109.093 "/>
<g>
	<path fill="#FFFFFF" d="M78.275,59.033c-3.188-1.719-5.76-4.595-8.672-7.076c-0.413-0.199-0.891-0.215-1.283,0.027
		c-1.664,2.469-3.586,5.227-6.135,7.01c-2.514,3.064-5.49,5.363-8.379,7.99c-1.04,1.074-2.44,1.628-3.428,2.688
		c-0.023,0.605-0.07,1.432,0.68,1.757c3.387,1.385,6.41,4.557,8.771,7.344l1.813,1.699c1.726,1.805,3.442,3.41,5.159,5.412
		c0.879,1.033,1.811,2.744,3.419,2.311l0.003,0.08c1.207-0.342,1.318-1.701,1.972-2.541c1.349-0.879,2.628-1.957,3.938-2.9
		c4.254-3.064,6.482-8.053,10.59-11.11c0.779-0.52,2.145-0.683,2.23-1.82c-1.176-1.133-2.436-1.778-3.639-3.037
		C82.423,64.511,81.333,61.16,78.275,59.033z M64.757,73.761l-0.756,0.811l-2.218,0.533l-0.536,0.059l0.059-0.117l-0.814-0.34
		c-0.176-0.199,0.211-0.752-0.053-0.805h-0.34l-0.053-4.382c0.091-0.608-0.838-0.981-0.141-1.827l1.878-2.074l-0.196,0.254
		l1.488,0.199c0.41,0.105,1.529,0.137,1.6,0.676c0.041,0.318-0.258,5.158,0.475,5.128L64.757,73.761z M72.509,64.769
		c0,0-0.308,0.802-0.281,0.957c0.193,1.059-0.229,4.256,0.088,3.226c0.006,0.64,0.182,2.127-0.012,2.385l0.164,0.727l0.029,4.049
		l-1.869,0.668c-3.973,2.439-2.549-10.055-2.889-10.578l0.111-1.346l-0.053-1.152h-0.141c0.378-1.33-0.275-2.045,1.342-3.308
		l-0.141,0.278c0.434,0,1.166-0.457,1.688-0.059l0.082,0.398c0.709,0.577,1.242,0.641,1.688,1.398l0.193-0.112
		c0.053,0.749-0.264,1.682-0.393,2.414L72.509,64.769z M80.425,75.009l-1.488,1.738c-1.898,0.701-2.402,0.01-3.018-1.195
		c-1.184-2.33-0.609-6.577-0.779-6.328c0.557-0.879,1.088-1.73,2.115-1.963c0.023,0.243,0.586-0.501,0.615-0.535l-0.137,0.258
		l0.67-0.452c0.252,0.017,1.352,1.405,1.629,1.21C79.64,69.728,80.812,73.916,80.425,75.009z"/>
	<path fill="#FFFFFF" d="M76.435,34.815c-0.012,0.13,0.121,0.175,0.162,0.281L76.435,34.815z"/>
	<path fill="#FFFFFF" d="M69.333,1.912L1.412,69.836l67.922,67.921l67.922-67.926L69.333,1.912z M103.318,78.894
		c-2.021,0.346-3.562-1.184-4.992-2.156c-0.85-1.219-2.191-2.359-3.68-2.41c-1.201,0.52-2.461,1.58-2.982,2.857
		c-1.096,0.715-1.648,2.098-2.736,3.035c-2.227,1.506-2.965,4.217-5.156,5.727c-2.438,2.434-5.047,4.756-7.494,7.043
		c-0.588,0.619-1.078,1.434-0.916,2.416c1.133,3.102,5.672,4.721,4.742,8.723c-0.498,2.025-1.857,4.002-3.732,4.998
		c-2.82,2.055-6.334,0.355-9.079-0.588c-2.883-1.516-4.658-5.033-3.472-8.203c0.369-0.293,0.369-1.031,0.814-1.219l0.158-0.17
		l0.023,0.086c0.858-0.373,1.433-1.316,2.273-1.715c0.967-1.111,0.756-2.689,0.234-3.967c-1.005-0.938-1.421-2.215-2.625-3.197
		c-4.392-4.09-7.828-7.82-12.293-11.482c-2.221-1.826-4.494-3.939-7.233-4.498c-2.13,0.242-3.741,1.607-4.937,3.322
		c-0.533,0.703-1.354,0.762-2.03,1.166c-1.931,0.869-3.501-0.748-5.288-1.002c-1.939-1.674-2.716-3.908-3.492-6.143
		c0.041-0.203,0.012-0.438,0-0.656l-0.17-0.078c-0.012-2.739,1.825-5.047,4.201-6.252c0.551,0.084,0.835-0.428,1.348-0.455
		c3.299-0.336,5.754,1.729,8.604,2.661c0.976,0.111,1.989-0.088,2.499-0.923c2.994-2.662,6.023-5.605,8.604-8.821
		c0.601-0.782,1.351-1.225,2.013-1.846c2.704-2.575,5.139-5.747,7.998-8.495c-0.299-0.516,0.56-0.578,0.609-1.059
		c0.908-3.984-2.962-6.457-3.053-10.338c-0.076-2.049,1.189-3.836,2.865-5.046c1.6-0.923,3.633-0.632,5.417-0.442
		c2.674,0.7,5.306,2.613,6.47,5.227c0.049,0.914,0.703,1.89,0.16,2.721c0.275,3.561-5.722,3.798-3.762,7.893
		c1.583,3.652,4.559,6.654,7.231,9.787c4.611,4.013,8.32,8.748,13.752,11.721c1.094,0.18,1.633-0.688,2.502-1.189
		c0.949-1.131,1.266-2.798,2.754-3.448c1.846-0.733,4.199-0.638,5.865,0.446c1.6,1.2,2.881,2.765,3.281,4.518
		c0.432,3.002,1.686,6.324-0.277,9.049C107.126,78.257,105.14,78.419,103.318,78.894z"/>
</g>
</svg>
